{
"type": "FeatureCollection",
"name": "data_nimes_4326",
"crs": { "type": "name", "properties": { "name": "urn:ogc:def:crs:OGC:1.3:CRS84" } },
"features": [
{ "type": "Feature", "properties": { "ID_number": 246203.0, "sum_population_carreau_decoup": 0.0041006513238009837, "nombre_loisirs": 0.0, "nombre_commerces": 0.0, "nombre_restauration": 0.0, "nombre_arrets": 0.0, "longueur_route": 0.064760632450084288, "ZA": 0.33008700952316006, "passage_niveau": 0.66666666666666663, "pente_moyenne": 0.080301509694175377, "total_sum_allegee": 0.98531345026953654 }, "geometry": { "type": "Point", "coordinates": [ 4.247165601409356, 43.683461070376751 ] } },
{ "type": "Feature", "properties": { "ID_number": 293558.0, "sum_population_carreau_decoup": 1.0, "nombre_loisirs": 1.0, "nombre_commerces": 0.34042553191489361, "nombre_restauration": 0.49572649572649574, "nombre_arrets": 1.0, "longueur_route": 1.0, "ZA": 0.85322800636937823, "passage_niveau": 0.0, "pente_moyenne": 0.32990550056181428, "total_sum_allegee": 5.359474533448954 }, "geometry": { "type": "Point", "coordinates": [ 4.358557337212894, 43.827284014285787 ] } },
{ "type": "Feature", "properties": { "ID_number": 293568.0, "sum_population_carreau_decoup": 0.52241618813422797, "nombre_loisirs": 0.2558139534883721, "nombre_commerces": 0.074468085106382975, "nombre_restauration": 0.17948717948717949, "nombre_arrets": 0.62105263157894741, "longueur_route": 0.90663597468203072, "ZA": 1.0, "passage_niveau": 0.0, "pente_moyenne": 0.89461525625648708, "total_sum_allegee": 2.6652587562206538 }, "geometry": { "type": "Point", "coordinates": [ 4.348063714332617, 43.822530931700122 ] } },
{ "type": "Feature", "properties": { "ID_number": 293578.0, "sum_population_carreau_decoup": 0.58322445185939431, "nombre_loisirs": 0.16279069767441862, "nombre_commerces": 0.20212765957446807, "nombre_restauration": 0.17094017094017094, "nombre_arrets": 0.76842105263157889, "longueur_route": 0.94499054205818767, "ZA": 0.78167257302480198, "passage_niveau": 0.0, "pente_moyenne": 0.55651087778371422, "total_sum_allegee": 3.0576562699793062 }, "geometry": { "type": "Point", "coordinates": [ 4.337080483007065, 43.818496157886848 ] } },
{ "type": "Feature", "properties": { "ID_number": 293588.0, "sum_population_carreau_decoup": 0.2118406679684384, "nombre_loisirs": 0.2558139534883721, "nombre_commerces": 0.14893617021276595, "nombre_restauration": 0.059829059829059832, "nombre_arrets": 0.43157894736842106, "longueur_route": 0.60037668282091006, "ZA": 0.75814011257367453, "passage_niveau": 0.0, "pente_moyenne": 0.38616974288426653, "total_sum_allegee": 2.0803458513773752 }, "geometry": { "type": "Point", "coordinates": [ 4.327179764712772, 43.813079389846081 ] } },
{ "type": "Feature", "properties": { "ID_number": 293598.0, "sum_population_carreau_decoup": 0.0010700566289393292, "nombre_loisirs": 0.0, "nombre_commerces": 0.031914893617021274, "nombre_restauration": 0.02564102564102564, "nombre_arrets": 0.0, "longueur_route": 0.071603475527201907, "ZA": 0.200673269712279, "passage_niveau": 0.0, "pente_moyenne": 0.11725076351853134, "total_sum_allegee": 0.21365195760793579 }, "geometry": { "type": "Point", "coordinates": [ 4.319180689160808, 43.806147773071878 ] } },
{ "type": "Feature", "properties": { "ID_number": 333218.0, "sum_population_carreau_decoup": 0.00075706606949834396, "nombre_loisirs": 0.0, "nombre_commerces": 0.031914893617021274, "nombre_restauration": 0.02564102564102564, "nombre_arrets": 0.0, "longueur_route": 0.070173528497315993, "ZA": 0.16905595631181766, "passage_niveau": 0.0, "pente_moyenne": 0.1474826880615151, "total_sum_allegee": 0.15005978207516379 }, "geometry": { "type": "Point", "coordinates": [ 4.318574796062248, 43.804862452478581 ] } },
{ "type": "Feature", "properties": { "ID_number": 333228.0, "sum_population_carreau_decoup": 0.0059541692234902997, "nombre_loisirs": 0.0, "nombre_commerces": 0.010638297872340425, "nombre_restauration": 0.0, "nombre_arrets": 0.042105263157894736, "longueur_route": 0.16130405920617175, "ZA": 0.2720538484837825, "passage_niveau": 0.0, "pente_moyenne": 0.27397474667053323, "total_sum_allegee": 0.21808089127314645 }, "geometry": { "type": "Point", "coordinates": [ 4.322290951797306, 43.796539752417168 ] } },
{ "type": "Feature", "properties": { "ID_number": 333238.0, "sum_population_carreau_decoup": 0.00066081319826307621, "nombre_loisirs": 0.0, "nombre_commerces": 0.0, "nombre_restauration": 0.0, "nombre_arrets": 0.0, "longueur_route": 0.0, "ZA": 0.2619505802813048, "passage_niveau": 0.0, "pente_moyenne": 0.27299842624438886, "total_sum_allegee": -0.010387032764821003 }, "geometry": { "type": "Point", "coordinates": [ 4.327503148452934, 43.788389318870919 ] } },
{ "type": "Feature", "properties": { "ID_number": 333248.0, "sum_population_carreau_decoup": 0.00014657906562927072, "nombre_loisirs": 0.0, "nombre_commerces": 0.0, "nombre_restauration": 0.0, "nombre_arrets": 0.0, "longueur_route": 0.0, "ZA": 0.35052193582805868, "passage_niveau": 0.0, "pente_moyenne": 0.56006876922590876, "total_sum_allegee": -0.20940025433222081 }, "geometry": { "type": "Point", "coordinates": [ 4.332699960078567, 43.780240250502843 ] } },
{ "type": "Feature", "properties": { "ID_number": 333258.0, "sum_population_carreau_decoup": 0.00032381497789513028, "nombre_loisirs": 0.0, "nombre_commerces": 0.0, "nombre_restauration": 0.0085470085470085479, "nombre_arrets": 0.0, "longueur_route": 0.04955017427981815, "ZA": 0.13098135279272813, "passage_niveau": 0.33333333333333331, "pente_moyenne": 0.37827954520403612, "total_sum_allegee": 0.14445613872674717 }, "geometry": { "type": "Point", "coordinates": [ 4.337871606028679, 43.772053507539269 ] } },
{ "type": "Feature", "properties": { "ID_number": 333268.0, "sum_population_carreau_decoup": 0.00044117609559975917, "nombre_loisirs": 0.0, "nombre_commerces": 0.0, "nombre_restauration": 0.0, "nombre_arrets": 0.042105263157894736, "longueur_route": 0.051402694253324117, "ZA": 0.19471549514790407, "passage_niveau": 0.0, "pente_moyenne": 0.26464758814984868, "total_sum_allegee": 0.024017040504873965 }, "geometry": { "type": "Point", "coordinates": [ 4.34058836778888, 43.763247485143417 ] } },
{ "type": "Feature", "properties": { "ID_number": 333278.0, "sum_population_carreau_decoup": 0.0034960435047734404, "nombre_loisirs": 0.0, "nombre_commerces": 0.0, "nombre_restauration": 0.0, "nombre_arrets": 0.12631578947368421, "longueur_route": 0.20455569871180421, "ZA": 0.36010428883128348, "passage_niveau": 0.66666666666666663, "pente_moyenne": 0.67771791619368393, "total_sum_allegee": 0.68342057099452802 }, "geometry": { "type": "Point", "coordinates": [ 4.342875963492432, 43.754339981751365 ] } },
{ "type": "Feature", "properties": { "ID_number": 333288.0, "sum_population_carreau_decoup": 0.0036693931037717316, "nombre_loisirs": 0.0, "nombre_commerces": 0.010638297872340425, "nombre_restauration": 0.02564102564102564, "nombre_arrets": 0.16842105263157894, "longueur_route": 0.17862394772742635, "ZA": 0.23177365430744815, "passage_niveau": 0.0, "pente_moyenne": 0.54841940339025352, "total_sum_allegee": 0.070347967893337748 }, "geometry": { "type": "Point", "coordinates": [ 4.345178443306324, 43.745449647741452 ] } },
{ "type": "Feature", "properties": { "ID_number": 333298.0, "sum_population_carreau_decoup": 0.084390192569823094, "nombre_loisirs": 0.0, "nombre_commerces": 0.0, "nombre_restauration": 0.0085470085470085479, "nombre_arrets": 0.28421052631578947, "longueur_route": 0.28513965853447287, "ZA": 0.61369080731414205, "passage_niveau": 0.0, "pente_moyenne": 0.57494147112888971, "total_sum_allegee": 0.70103672215234625 }, "geometry": { "type": "Point", "coordinates": [ 4.346962857250814, 43.736612284184751 ] } },
{ "type": "Feature", "properties": { "ID_number": 333308.0, "sum_population_carreau_decoup": 0.061528466859742816, "nombre_loisirs": 0.0, "nombre_commerces": 0.021276595744680851, "nombre_restauration": 0.0, "nombre_arrets": 0.18947368421052632, "longueur_route": 0.25130428003799232, "ZA": 0.35009480881293253, "passage_niveau": 0.0, "pente_moyenne": 0.41036497613378803, "total_sum_allegee": 0.46331285953208684 }, "geometry": { "type": "Point", "coordinates": [ 4.338341276711173, 43.731226289432151 ] } },
{ "type": "Feature", "properties": { "ID_number": 333318.0, "sum_population_carreau_decoup": 0.11266188017809364, "nombre_loisirs": 0.16279069767441862, "nombre_commerces": 0.021276595744680851, "nombre_restauration": 0.034188034188034191, "nombre_arrets": 0.0, "longueur_route": 0.43090395887002286, "ZA": 0.73356452044464604, "passage_niveau": 0.33333333333333331, "pente_moyenne": 0.59268061255971893, "total_sum_allegee": 1.2360384078735107 }, "geometry": { "type": "Point", "coordinates": [ 4.327259603687765, 43.728603879257022 ] } },
{ "type": "Feature", "properties": { "ID_number": 333328.0, "sum_population_carreau_decoup": 0.3023081071506532, "nombre_loisirs": 0.11627906976744186, "nombre_commerces": 0.063829787234042548, "nombre_restauration": 0.059829059829059832, "nombre_arrets": 0.042105263157894736, "longueur_route": 0.55891800530145741, "ZA": 0.71064415055655228, "passage_niveau": 0.33333333333333331, "pente_moyenne": 1.0, "total_sum_allegee": 1.1872467763304355 }, "geometry": { "type": "Point", "coordinates": [ 4.31826493835909, 43.722402203678598 ] } },
{ "type": "Feature", "properties": { "ID_number": 333338.0, "sum_population_carreau_decoup": 0.03927242168451079, "nombre_loisirs": 0.0, "nombre_commerces": 0.0, "nombre_restauration": 0.0, "nombre_arrets": 0.0, "longueur_route": 0.11609313550954042, "ZA": 0.31964034769708771, "passage_niveau": 0.33333333333333331, "pente_moyenne": 0.46372878482195234, "total_sum_allegee": 0.34461045340251995 }, "geometry": { "type": "Point", "coordinates": [ 4.308000636846094, 43.717532316151704 ] } },
{ "type": "Feature", "properties": { "ID_number": 333348.0, "sum_population_carreau_decoup": 0.0013539767501319978, "nombre_loisirs": 0.0, "nombre_commerces": 0.0, "nombre_restauration": 0.0, "nombre_arrets": 0.0, "longueur_route": 0.09599949455405736, "ZA": 0.33337744718954793, "passage_niveau": 0.33333333333333331, "pente_moyenne": 0.42975782989644734, "total_sum_allegee": 0.33430642193062327 }, "geometry": { "type": "Point", "coordinates": [ 4.297492026058253, 43.7129495581773 ] } },
{ "type": "Feature", "properties": { "ID_number": 333358.0, "sum_population_carreau_decoup": 0.00011990436591693111, "nombre_loisirs": 0.0, "nombre_commerces": 0.021276595744680851, "nombre_restauration": 0.0, "nombre_arrets": 0.0, "longueur_route": 0.086281190521586171, "ZA": 0.21441053177289551, "passage_niveau": 0.0, "pente_moyenne": 0.33117886815638942, "total_sum_allegee": -0.009090645751309967 }, "geometry": { "type": "Point", "coordinates": [ 4.288574166921817, 43.706683213212514 ] } },
{ "type": "Feature", "properties": { "ID_number": 333368.0, "sum_population_carreau_decoup": 0.015935941755131005, "nombre_loisirs": 0.0, "nombre_commerces": 0.0, "nombre_restauration": 0.017094017094017096, "nombre_arrets": 0.0, "longueur_route": 0.10293784514817354, "ZA": 0.19504536255784263, "passage_niveau": 0.33333333333333331, "pente_moyenne": 0.37086949752234555, "total_sum_allegee": 0.29347700236615204 }, "geometry": { "type": "Point", "coordinates": [ 4.2782239808073, 43.701919585076254 ] } },
{ "type": "Feature", "properties": { "ID_number": 333378.0, "sum_population_carreau_decoup": 0.27354749995296535, "nombre_loisirs": 0.16279069767441862, "nombre_commerces": 0.074468085106382975, "nombre_restauration": 0.10256410256410256, "nombre_arrets": 0.042105263157894736, "longueur_route": 0.65256620122220976, "ZA": 0.77944255005124641, "passage_niveau": 1.0, "pente_moyenne": 0.3980355002745643, "total_sum_allegee": 2.6894488994546561 }, "geometry": { "type": "Point", "coordinates": [ 4.270286436508639, 43.695545399843532 ] } },
{ "type": "Feature", "properties": { "ID_number": 333388.0, "sum_population_carreau_decoup": 0.020480137442714489, "nombre_loisirs": 0.0, "nombre_commerces": 0.0, "nombre_restauration": 0.0085470085470085479, "nombre_arrets": 0.0, "longueur_route": 0.16690917285941917, "ZA": 0.29086019772022409, "passage_niveau": 0.66666666666666663, "pente_moyenne": 0.51049355182500789, "total_sum_allegee": 0.64296963141102503 }, "geometry": { "type": "Point", "coordinates": [ 4.263650699840062, 43.688509178400707 ] } },
{ "type": "Feature", "properties": { "ID_number": 333398.0, "sum_population_carreau_decoup": 0.005683465844931449, "nombre_loisirs": 0.0, "nombre_commerces": 0.0, "nombre_restauration": 0.0, "nombre_arrets": 0.0, "longueur_route": 0.05644868428293464, "ZA": 0.62818146682519194, "passage_niveau": 1.0, "pente_moyenne": 0.0, "total_sum_allegee": 1.6903136169530582 }, "geometry": { "type": "Point", "coordinates": [ 4.252611644137088, 43.684406227602445 ] } },
{ "type": "Feature", "properties": { "ID_number": 333408.0, "sum_population_carreau_decoup": 0.11419759856063483, "nombre_loisirs": 0.046511627906976744, "nombre_commerces": 0.0, "nombre_restauration": 0.0085470085470085479, "nombre_arrets": 0.042105263157894736, "longueur_route": 0.35714696623597664, "ZA": 0.51938662115282708, "passage_niveau": 0.33333333333333331, "pente_moyenne": 0.33131434789969216, "total_sum_allegee": 1.0899140709949595 }, "geometry": { "type": "Point", "coordinates": [ 4.240550576584008, 43.683992401736155 ] } },
{ "type": "Feature", "properties": { "ID_number": 333418.0, "sum_population_carreau_decoup": 0.00091467757695366391, "nombre_loisirs": 0.0, "nombre_commerces": 0.0, "nombre_restauration": 0.0, "nombre_arrets": 0.0, "longueur_route": 0.0072762067658871414, "ZA": 0.20529726379926921, "passage_niveau": 0.0, "pente_moyenne": 0.62353775415521906, "total_sum_allegee": -0.41004960601310902 }, "geometry": { "type": "Point", "coordinates": [ 4.228446508088984, 43.682115686387377 ] } },
{ "type": "Feature", "properties": { "ID_number": 333428.0, "sum_population_carreau_decoup": 0.0080168180208498602, "nombre_loisirs": 0.0, "nombre_commerces": 0.010638297872340425, "nombre_restauration": 0.0, "nombre_arrets": 0.0, "longueur_route": 0.26101855433947091, "ZA": 0.52559910972961532, "passage_niveau": 0.33333333333333331, "pente_moyenne": 0.14550820364596959, "total_sum_allegee": 0.99309790964964018 }, "geometry": { "type": "Point", "coordinates": [ 4.216355691075202, 43.679995832871676 ] } },
{ "type": "Feature", "properties": { "ID_number": 333438.0, "sum_population_carreau_decoup": 0.061100591523296208, "nombre_loisirs": 0.0, "nombre_commerces": 0.0, "nombre_restauration": 0.0085470085470085479, "nombre_arrets": 0.0, "longueur_route": 0.19906367477020634, "ZA": 0.43495422338792333, "passage_niveau": 0.33333333333333331, "pente_moyenne": 0.24073420201478768, "total_sum_allegee": 0.79626462954698007 }, "geometry": { "type": "Point", "coordinates": [ 4.20428732545738, 43.677768815091952 ] } },
{ "type": "Feature", "properties": { "ID_number": 333448.0, "sum_population_carreau_decoup": 0.00016823918490838433, "nombre_loisirs": 0.0, "nombre_commerces": 0.0, "nombre_restauration": 0.0, "nombre_arrets": 0.0, "longueur_route": 0.079150347422372078, "ZA": 0.28074506158948404, "passage_niveau": 0.33333333333333331, "pente_moyenne": 0.024923361219556628, "total_sum_allegee": 0.66847362031054114 }, "geometry": { "type": "Point", "coordinates": [ 4.201007452589145, 43.669873734163581 ] } },
{ "type": "Feature", "properties": { "ID_number": 333458.0, "sum_population_carreau_decoup": 0.0, "nombre_loisirs": 0.0, "nombre_commerces": 0.0, "nombre_restauration": 0.0, "nombre_arrets": 0.0, "longueur_route": 0.10738301107691217, "ZA": 0.4324861900816338, "passage_niveau": 0.33333333333333331, "pente_moyenne": 0.0079528160975552761, "total_sum_allegee": 0.86524971839432396 }, "geometry": { "type": "Point", "coordinates": [ 4.201929740486677, 43.660923341034277 ] } },
{ "type": "Feature", "properties": { "ID_number": 333468.0, "sum_population_carreau_decoup": 0.0010236763808792446, "nombre_loisirs": 0.0, "nombre_commerces": 0.0, "nombre_restauration": 0.0, "nombre_arrets": 0.0, "longueur_route": 0.071613885336868979, "ZA": 0.13774704057919179, "passage_niveau": 0.0, "pente_moyenne": 0.19535679925353275, "total_sum_allegee": 0.015027803043407256 }, "geometry": { "type": "Point", "coordinates": [ 4.200279724695188, 43.652217313917234 ] } },
{ "type": "Feature", "properties": { "ID_number": 333478.0, "sum_population_carreau_decoup": 0.005716957827253585, "nombre_loisirs": 0.023255813953488372, "nombre_commerces": 0.0, "nombre_restauration": 0.0, "nombre_arrets": 0.042105263157894736, "longueur_route": 0.20958554306042848, "ZA": 0.37133019309356147, "passage_niveau": 0.33333333333333331, "pente_moyenne": 0.19057135057112082, "total_sum_allegee": 0.7947557538548391 }, "geometry": { "type": "Point", "coordinates": [ 4.195815098552218, 43.643815773329642 ] } },
{ "type": "Feature", "properties": { "ID_number": 333488.0, "sum_population_carreau_decoup": 0.0079906734847459224, "nombre_loisirs": 0.0, "nombre_commerces": 0.0, "nombre_restauration": 0.0, "nombre_arrets": 0.042105263157894736, "longueur_route": 0.12638869317151022, "ZA": 0.081713098107093193, "passage_niveau": 0.33333333333333331, "pente_moyenne": 0.43926201670287796, "total_sum_allegee": 0.15226904455169948 }, "geometry": { "type": "Point", "coordinates": [ 4.190496218216504, 43.635696205855169 ] } },
{ "type": "Feature", "properties": { "ID_number": 333498.0, "sum_population_carreau_decoup": 0.0071911223231894347, "nombre_loisirs": 0.0, "nombre_commerces": 0.0, "nombre_restauration": 0.0085470085470085479, "nombre_arrets": 0.0, "longueur_route": 0.13877652925102218, "ZA": 0.30993256669707847, "passage_niveau": 0.33333333333333331, "pente_moyenne": 0.16084830314173693, "total_sum_allegee": 0.63693225700989498 }, "geometry": { "type": "Point", "coordinates": [ 4.190228761358818, 43.62688118190502 ] } },
{ "type": "Feature", "properties": { "ID_number": 333508.0, "sum_population_carreau_decoup": 0.00093668470139467337, "nombre_loisirs": 0.0, "nombre_commerces": 0.0, "nombre_restauration": 0.0, "nombre_arrets": 0.0, "longueur_route": 0.26826035199143089, "ZA": 0.54369935522528434, "passage_niveau": 0.33333333333333331, "pente_moyenne": 0.096345943188877889, "total_sum_allegee": 1.0498837820625655 }, "geometry": { "type": "Point", "coordinates": [ 4.19165196111796, 43.61794445792183 ] } },
{ "type": "Feature", "properties": { "ID_number": 333518.0, "sum_population_carreau_decoup": 0.00024189559298961428, "nombre_loisirs": 0.0, "nombre_commerces": 0.0, "nombre_restauration": 0.0, "nombre_arrets": 0.0, "longueur_route": 0.26152630374267716, "ZA": 0.39458379319415038, "passage_niveau": 0.0, "pente_moyenne": 0.39365712508392359, "total_sum_allegee": 0.26269486744589354 }, "geometry": { "type": "Point", "coordinates": [ 4.193049164160604, 43.608984355790923 ] } },
{ "type": "Feature", "properties": { "ID_number": 333528.0, "sum_population_carreau_decoup": 0.0, "nombre_loisirs": 0.0, "nombre_commerces": 0.0, "nombre_restauration": 0.0, "nombre_arrets": 0.0, "longueur_route": 0.039830005446060517, "ZA": 0.0, "passage_niveau": 0.0, "pente_moyenne": 0.24976027567122397, "total_sum_allegee": -0.20993027022516345 }, "geometry": { "type": "Point", "coordinates": [ 4.194471682332883, 43.599900767235148 ] } },
{ "type": "Feature", "properties": { "ID_number": 333538.0, "sum_population_carreau_decoup": 0.00010636788656972656, "nombre_loisirs": 0.0, "nombre_commerces": 0.0, "nombre_restauration": 0.0, "nombre_arrets": 0.0, "longueur_route": 0.080185836419263981, "ZA": 0.22180543051428708, "passage_niveau": 0.66666666666666663, "pente_moyenne": 0.62945289695012863, "total_sum_allegee": 0.33931140453665887 }, "geometry": { "type": "Point", "coordinates": [ 4.195716208300683, 43.590862845235009 ] } },
{ "type": "Feature", "properties": { "ID_number": 333548.0, "sum_population_carreau_decoup": 0.0039774539126644672, "nombre_loisirs": 0.0, "nombre_commerces": 0.0, "nombre_restauration": 0.0, "nombre_arrets": 0.0, "longueur_route": 0.16842619601397232, "ZA": 0.30669796458627069, "passage_niveau": 0.0, "pente_moyenne": 0.31328285214776047, "total_sum_allegee": 0.16581876236514698 }, "geometry": { "type": "Point", "coordinates": [ 4.197223695096312, 43.582142207261917 ] } },
{ "type": "Feature", "properties": { "ID_number": 333558.0, "sum_population_carreau_decoup": 0.11473420583807491, "nombre_loisirs": 0.046511627906976744, "nombre_commerces": 0.031914893617021274, "nombre_restauration": 0.034188034188034191, "nombre_arrets": 0.042105263157894736, "longueur_route": 0.42264576667774767, "ZA": 0.79922555619515445, "passage_niveau": 0.66666666666666663, "pente_moyenne": 0.19315106394697718, "total_sum_allegee": 1.9648409503005932 }, "geometry": { "type": "Point", "coordinates": [ 4.194256033770802, 43.573870504118076 ] } },
{ "type": "Feature", "properties": { "ID_number": 333568.0, "sum_population_carreau_decoup": 0.17332538026378042, "nombre_loisirs": 0.27906976744186046, "nombre_commerces": 0.5, "nombre_restauration": 0.49572649572649574, "nombre_arrets": 0.0, "longueur_route": 0.61316482752372803, "ZA": 0.60937969476654186, "passage_niveau": 1.0, "pente_moyenne": 0.21422072336783357, "total_sum_allegee": 3.4564454423545725 }, "geometry": { "type": "Point", "coordinates": [ 4.187644522720591, 43.566281364143407 ] } },
{ "type": "Feature", "properties": { "ID_number": 333578.0, "sum_population_carreau_decoup": 0.0026726345219314552, "nombre_loisirs": 0.0, "nombre_commerces": 0.0, "nombre_restauration": 0.0, "nombre_arrets": 0.0, "longueur_route": 0.20772004846082281, "ZA": 0.38129801877040709, "passage_niveau": 0.66666666666666663, "pente_moyenne": 0.36758325733356961, "total_sum_allegee": 0.89077411108625859 }, "geometry": { "type": "Point", "coordinates": [ 4.183081421796297, 43.557957077297694 ] } },
{ "type": "Feature", "properties": { "ID_number": 333588.0, "sum_population_carreau_decoup": 0.00081895326097137047, "nombre_loisirs": 0.0, "nombre_commerces": 0.0, "nombre_restauration": 0.0, "nombre_arrets": 0.0, "longueur_route": 0.14841641885541348, "ZA": 0.25089933756895944, "passage_niveau": 0.33333333333333331, "pente_moyenne": 0.47882741449907829, "total_sum_allegee": 0.25464062851959923 }, "geometry": { "type": "Point", "coordinates": [ 4.173051167657035, 43.552720824849857 ] } },
{ "type": "Feature", "properties": { "ID_number": 333598.0, "sum_population_carreau_decoup": 0.00086129188691065378, "nombre_loisirs": 0.0, "nombre_commerces": 0.0, "nombre_restauration": 0.0, "nombre_arrets": 0.0, "longueur_route": 0.087314605094093264, "ZA": 0.18469631943793757, "passage_niveau": 0.33333333333333331, "pente_moyenne": 0.5800000183665236, "total_sum_allegee": 0.026205531385751213 }, "geometry": { "type": "Point", "coordinates": [ 4.162399244403381, 43.548125327267449 ] } },
{ "type": "Feature", "properties": { "ID_number": 333608.0, "sum_population_carreau_decoup": 0.0, "nombre_loisirs": 0.0, "nombre_commerces": 0.0, "nombre_restauration": 0.0, "nombre_arrets": 0.0, "longueur_route": 0.077446669642470461, "ZA": 0.19418684946930043, "passage_niveau": 0.0, "pente_moyenne": 0.56612857454759702, "total_sum_allegee": -0.2944950554358261 }, "geometry": { "type": "Point", "coordinates": [ 4.151914080515038, 43.543530278816554 ] } },
{ "type": "Feature", "properties": { "ID_number": 333618.0, "sum_population_carreau_decoup": 0.11603178393575442, "nombre_loisirs": 0.23255813953488372, "nombre_commerces": 1.0, "nombre_restauration": 1.0, "nombre_arrets": 0.042105263157894736, "longueur_route": 0.63413253898817135, "ZA": 0.72173839616466817, "passage_niveau": 0.33333333333333331, "pente_moyenne": 0.21308907352567416, "total_sum_allegee": 3.866810381589032 }, "geometry": { "type": "Point", "coordinates": [ 4.142348206524935, 43.537902990968206 ] } },
{ "type": "Feature", "properties": { "ID_number": 87775858.0, "sum_population_carreau_decoup": 0.14400646008083318, "nombre_loisirs": 0.16923076923076924, "nombre_commerces": 0.53703703703703709, "nombre_restauration": 0.47741935483870968, "nombre_arrets": 0.0, "longueur_route": 0.38439195814672983, "ZA": 0.52597484206328171, "passage_niveau": 1.0, "pente_moyenne": 0.017748376075210712, "total_sum_allegee": 3.2203120453221499 }, "geometry": { "type": "Point", "coordinates": [ 4.1912102, 43.570900799999876 ] } },
{ "type": "Feature", "properties": { "ID_number": 87775833.0, "sum_population_carreau_decoup": 0.0, "nombre_loisirs": 0.0, "nombre_commerces": 0.0092592592592592587, "nombre_restauration": 0.0064516129032258064, "nombre_arrets": 0.0, "longueur_route": 0.0, "ZA": 0.0, "passage_niveau": 0.33333333333333331, "pente_moyenne": 0.16083977835227026, "total_sum_allegee": 0.18820442714354813 }, "geometry": { "type": "Point", "coordinates": [ 4.2082933, 43.678610699999872 ] } },
{ "type": "Feature", "properties": { "ID_number": 87775809.0, "sum_population_carreau_decoup": 0.036442819566319867, "nombre_loisirs": 0.046153846153846156, "nombre_commerces": 0.018518518518518517, "nombre_restauration": 0.0, "nombre_arrets": 0.0, "longueur_route": 0.01798612194654645, "ZA": 0.14286836154961552, "passage_niveau": 0.33333333333333331, "pente_moyenne": 1.0, "total_sum_allegee": -0.4046969989318201 }, "geometry": { "type": "Point", "coordinates": [ 4.3212178, 43.724502599999902 ] } },
{ "type": "Feature", "properties": { "ID_number": 87775791.0, "sum_population_carreau_decoup": 0.10868762757189336, "nombre_loisirs": 0.12307692307692308, "nombre_commerces": 0.027777777777777776, "nombre_restauration": 0.01935483870967742, "nombre_arrets": 0.33333333333333331, "longueur_route": 0.24945886002206469, "ZA": 0.73854638778544823, "passage_niveau": 0.0, "pente_moyenne": 0.50263959818739401, "total_sum_allegee": 1.0975961500897236 }, "geometry": { "type": "Point", "coordinates": [ 4.3434742, 43.732437899999866 ] } },
{ "type": "Feature", "properties": { "ID_number": 87775825.0, "sum_population_carreau_decoup": 0.034238847364212018, "nombre_loisirs": 0.030769230769230771, "nombre_commerces": 0.0, "nombre_restauration": 0.0064516129032258064, "nombre_arrets": 0.0, "longueur_route": 0.12962934238611842, "ZA": 0.20193654887412746, "passage_niveau": 0.33333333333333331, "pente_moyenne": 0.01286188290426459, "total_sum_allegee": 0.72349703272598309 }, "geometry": { "type": "Point", "coordinates": [ 4.2354236, 43.683414099999915 ] } },
{ "type": "Feature", "properties": { "ID_number": 87775866.0, "sum_population_carreau_decoup": 0.030312736115844178, "nombre_loisirs": 0.18461538461538463, "nombre_commerces": 1.0, "nombre_restauration": 1.0, "nombre_arrets": 0.0, "longueur_route": 0.2882859391164837, "ZA": 0.38692597181801475, "passage_niveau": 0.33333333333333331, "pente_moyenne": 0.0036829304409589643, "total_sum_allegee": 3.2197904345581021 }, "geometry": { "type": "Point", "coordinates": [ 4.140338, 43.537127299999874 ] } },
{ "type": "Feature", "properties": { "ID_number": 87775007.0, "sum_population_carreau_decoup": 1.0, "nombre_loisirs": 1.0, "nombre_commerces": 0.42592592592592593, "nombre_restauration": 0.6645161290322581, "nombre_arrets": 1.0, "longueur_route": 1.0, "ZA": 1.0, "passage_niveau": 0.0, "pente_moyenne": 0.0, "total_sum_allegee": 6.0904420549581841 }, "geometry": { "type": "Point", "coordinates": [ 4.365845, 43.832290999999898 ] } },
{ "type": "Feature", "properties": { "ID_number": 87775072.0, "sum_population_carreau_decoup": 0.14071743863334235, "nombre_loisirs": 0.18461538461538463, "nombre_commerces": 0.12962962962962962, "nombre_restauration": 0.045161290322580643, "nombre_arrets": 0.46666666666666667, "longueur_route": 0.34618099984766165, "ZA": 0.61159239532996801, "passage_niveau": 0.0, "pente_moyenne": 0.45911022814111002, "total_sum_allegee": 1.4654535769041237 }, "geometry": { "type": "Point", "coordinates": [ 4.3276399, 43.813386299999912 ] } },
{ "type": "Feature", "properties": { "ID_number": 87775817.0, "sum_population_carreau_decoup": 0.18305130649232371, "nombre_loisirs": 0.1076923076923077, "nombre_commerces": 0.07407407407407407, "nombre_restauration": 0.096774193548387094, "nombre_arrets": 0.0, "longueur_route": 0.33843846030969132, "ZA": 0.53372614726118672, "passage_niveau": 1.0, "pente_moyenne": 0.49474154331928299, "total_sum_allegee": 1.8390149460586873 }, "geometry": { "type": "Point", "coordinates": [ 4.270165, 43.695037499999927 ] } }
]
}
